Lab2/4 i/simulation/qsim/hexdisp.msim.vcd
$comment
	File created using the following command:
		vcd file hexdisp.msim.vcd -direction
$end
$date
	Thu Oct 19 20:43:10 2023
$end
$version
	ModelSim Version 2020.1
$end
$timescale
	1ps
$end

$scope module hexdisp_vlg_vec_tst $end
$var reg 1 ! x0 $end
$var reg 1 " x1 $end
$var reg 1 # x2 $end
$var reg 1 $ x3 $end
$var wire 1 % segment0 $end
$var wire 1 & segment1 $end
$var wire 1 ' segment2 $end
$var wire 1 ( segment3 $end
$var wire 1 ) segment4 $end
$var wire 1 * segment5 $end
$var wire 1 + segment6 $end

$scope module i1 $end
$var wire 1 , gnd $end
$var wire 1 - vcc $end
$var wire 1 . unknown $end
$var tri1 1 / devclrn $end
$var tri1 1 0 devpor $end
$var tri1 1 1 devoe $end
$var wire 1 2 ~QUARTUS_CREATED_GND~I_combout $end
$var wire 1 3 x2~input_o $end
$var wire 1 4 x1~input_o $end
$var wire 1 5 x3~input_o $end
$var wire 1 6 x0~input_o $end
$var wire 1 7 segment0~0_combout $end
$var wire 1 8 segment1~0_combout $end
$var wire 1 9 segment2~0_combout $end
$var wire 1 : segment3~0_combout $end
$var wire 1 ; segment4~0_combout $end
$var wire 1 < segment5~0_combout $end
$var wire 1 = segment6~0_combout $end
$upscope $end
$upscope $end
$enddefinitions $end
#0
$dumpvars
0!
0"
0#
0$
1%
1&
1'
1(
1)
1*
0+
0,
1-
x.
1/
10
11
02
03
04
05
06
17
18
19
1:
1;
1<
0=
$end
#50000
1!
16
0<
0;
0:
07
0%
0(
0)
0*
#100000
1"
0!
14
06
1=
1;
1:
09
17
1%
0'
1(
1)
1+
#150000
1!
16
0;
19
1'
0)
#200000
1#
0"
0!
13
04
06
1<
0:
08
07
0%
0&
0(
1*
#250000
1!
16
1:
17
1%
1(
#300000
1"
0!
14
06
1;
1)
#350000
1!
16
0=
0<
0;
0:
18
1&
0(
0)
0*
0+
#400000
1$
0#
0"
0!
15
03
04
06
1=
1<
1;
1:
1(
1)
1*
1+
#450000
1!
16
0;
0:
0(
0)
#500000
1"
0!
14
06
1;
07
0%
1)
#550000
1!
16
1:
08
17
1%
0&
1(
#600000
1#
0"
0!
13
04
06
0=
09
0'
0+
#650000
1!
16
1=
0<
19
18
07
0%
1&
1'
0*
1+
#700000
1"
0!
14
06
1<
09
08
17
1%
0&
0'
1*
#750000
1!
16
0:
0(
