Lab3/5b/simulation/qsim/five_b.msim.vcd
$comment
	File created using the following command:
		vcd file five_b.msim.vcd -direction
$end
$date
	Wed Nov 01 21:07:18 2023
$end
$version
	ModelSim Version 2020.1
$end
$timescale
	1ps
$end

$scope module five_b_vlg_vec_tst $end
$var reg 1 ! carryin $end
$var reg 3 " x [2:0] $end
$var reg 3 # y [2:0] $end
$var wire 1 $ carryout $end
$var wire 1 % s [2] $end
$var wire 1 & s [1] $end
$var wire 1 ' s [0] $end

$scope module i1 $end
$var wire 1 ( gnd $end
$var wire 1 ) vcc $end
$var wire 1 * unknown $end
$var tri1 1 + devclrn $end
$var tri1 1 , devpor $end
$var tri1 1 - devoe $end
$var wire 1 . ~QUARTUS_CREATED_GND~I_combout $end
$var wire 1 / x[0]~input_o $end
$var wire 1 0 carryin~input_o $end
$var wire 1 1 y[0]~input_o $end
$var wire 1 2 s~0_combout $end
$var wire 1 3 x[1]~input_o $end
$var wire 1 4 y[1]~input_o $end
$var wire 1 5 s~1_combout $end
$var wire 1 6 x[2]~input_o $end
$var wire 1 7 c[2]~0_combout $end
$var wire 1 8 y[2]~input_o $end
$var wire 1 9 s~2_combout $end
$var wire 1 : c~1_combout $end
$upscope $end
$upscope $end
$enddefinitions $end
#0
$dumpvars
0!
b0 "
b0 #
0$
0'
0&
0%
0(
1)
x*
1+
1,
1-
0.
0/
00
01
02
03
04
05
06
07
08
09
0:
$end
#50000
1!
10
12
1'
#100000
b1 "
b1 #
0!
11
1/
00
15
02
0'
1&
#150000
1!
10
12
1'
#200000
b11 "
b11 #
b10 "
b10 #
0!
01
14
0/
13
00
17
05
02
0'
0&
19
1%
#250000
1!
10
12
1'
#300000
b11 "
b11 #
0!
11
1/
00
15
02
0'
1&
#350000
1!
10
12
1'
#400000
b111 "
b111 #
b101 "
b101 #
b100 "
b100 #
0!
01
04
18
0/
03
16
00
07
05
02
1:
1$
0'
0&
09
0%
#450000
1!
10
12
1'
#500000
b101 "
b101 #
0!
11
1/
00
15
02
0'
1&
#550000
1!
10
12
1'
#600000
b111 "
b111 #
b110 "
b110 #
0!
01
14
0/
13
00
17
05
02
0'
0&
19
1%
#650000
1!
10
12
1'
#700000
b111 "
b111 #
0!
11
1/
00
15
02
0'
1&
#750000
1!
10
12
1'
