Lab2/4 ii/simulation/qsim/name.msim.vcd
$comment
	File created using the following command:
		vcd file name.msim.vcd -direction
$end
$date
	Thu Oct 19 20:34:55 2023
$end
$version
	ModelSim Version 2020.1
$end
$timescale
	1ps
$end

$scope module name_vlg_vec_tst $end
$var reg 1 ! nx0 $end
$var reg 1 " nx1 $end
$var reg 1 # nx2 $end
$var reg 1 $ nx3 $end
$var wire 1 % nsegment0 $end
$var wire 1 & nsegment1 $end
$var wire 1 ' nsegment2 $end
$var wire 1 ( nsegment3 $end
$var wire 1 ) nsegment4 $end
$var wire 1 * nsegment5 $end
$var wire 1 + nsegment6 $end

$scope module i1 $end
$var wire 1 , gnd $end
$var wire 1 - vcc $end
$var wire 1 . unknown $end
$var tri1 1 / devclrn $end
$var tri1 1 0 devpor $end
$var tri1 1 1 devoe $end
$var wire 1 2 ~QUARTUS_CREATED_GND~I_combout $end
$var wire 1 3 nx0~input_o $end
$var wire 1 4 nx3~input_o $end
$var wire 1 5 nx2~input_o $end
$var wire 1 6 nx1~input_o $end
$var wire 1 7 nsegment0~0_combout $end
$var wire 1 8 nsegment1~0_combout $end
$var wire 1 9 nsegment2~0_combout $end
$var wire 1 : nsegment3~0_combout $end
$var wire 1 ; nsegment4~0_combout $end
$var wire 1 < nsegment5~0_combout $end
$var wire 1 = nsegment6~0_combout $end
$upscope $end
$upscope $end
$enddefinitions $end
#0
$dumpvars
0!
0"
0#
0$
0%
1&
1'
0(
1)
1*
1+
0,
1-
x.
1/
10
11
02
03
04
05
06
07
18
19
0:
1;
1<
1=
$end
#10000
1!
13
1:
09
08
17
1%
0&
0'
1(
#20000
1"
0!
16
03
0<
0:
07
0%
0(
0*
#30000
1!
13
19
1'
#40000
1#
0"
0!
15
06
03
1<
18
17
1%
1&
1*
#50000
1!
13
0<
1:
07
0%
1(
0*
#60000
1"
0!
16
03
09
17
1%
0'
#70000
1!
13
0=
0;
0:
19
07
0%
1'
0(
0)
0+
#80000
1$
0#
0"
0!
14
05
06
03
1;
1:
08
0&
1(
1)
