Lab 4/Input Conditioning/simulation/qsim/inputcond.msim.vcd
$comment
	File created using the following command:
		vcd file inputcond.msim.vcd -direction
$end
$date
	Thu Nov 16 21:31:10 2023
$end
$version
	ModelSim Version 2020.1
$end
$timescale
	1ps
$end

$scope module inputcond_vlg_vec_tst $end
$var reg 1 ! Ainput $end
$var reg 1 " clock $end
$var wire 1 # led $end

$scope module i1 $end
$var wire 1 $ gnd $end
$var wire 1 % vcc $end
$var wire 1 & unknown $end
$var tri1 1 ' devclrn $end
$var tri1 1 ( devpor $end
$var tri1 1 ) devoe $end
$var wire 1 * ~QUARTUS_CREATED_GND~I_combout $end
$var wire 1 + clock~input_o $end
$var wire 1 , clock~inputCLKENA0_outclk $end
$var wire 1 - Ainput~input_o $end
$var wire 1 . Selector3~0_combout $end
$var wire 1 / pulse.C~q $end
$var wire 1 0 Selector1~0_combout $end
$var wire 1 1 pulse.A~q $end
$var wire 1 2 Selector2~0_combout $end
$var wire 1 3 pulse.B~q $end
$var wire 1 4 led~0_combout $end
$var wire 1 5 led~reg0_q $end
$upscope $end
$upscope $end
$enddefinitions $end
#0
$dumpvars
1!
0"
0#
0$
1%
x&
1'
1(
1)
0*
0+
0,
1-
0.
0/
00
01
02
03
04
05
$end
#20000
0!
0-
14
12
10
#50000
1"
1+
1,
13
11
15
1#
04
02
1.
#100000
0"
0+
0,
#150000
1"
1+
1,
03
1/
05
0#
#200000
0"
0+
0,
#250000
1"
1+
1,
#270000
1!
1-
00
0.
#300000
0"
0+
0,
#340000
0!
0-
10
1.
#350000
1"
1+
1,
#400000
0"
0+
0,
#430000
1!
1-
00
0.
#450000
1"
1+
1,
01
0/
#500000
0"
0+
0,
#550000
1"
1+
1,
#600000
0"
0+
0,
#640000
0!
0-
14
12
10
#650000
1"
1+
1,
13
11
15
1#
04
02
1.
#700000
0"
0+
0,
#750000
1"
1+
1,
03
1/
05
0#
#780000
1!
1-
00
0.
