Lab 4/statemachine/simulation/qsim/statemachine.msim.vcd
$comment
	File created using the following command:
		vcd file statemachine.msim.vcd -direction
$end
$date
	Thu Nov 16 23:30:47 2023
$end
$version
	ModelSim Version 2020.1
$end
$timescale
	1ps
$end

$scope module statemachine_vlg_vec_tst $end
$var reg 1 ! change $end
$var reg 1 " clock $end
$var reg 1 # enter $end
$var reg 1 $ equals $end
$var reg 1 % resetn $end
$var wire 1 & alarm $end
$var wire 1 ' new $end
$var wire 1 ( open $end

$scope module i1 $end
$var wire 1 ) gnd $end
$var wire 1 * vcc $end
$var wire 1 + unknown $end
$var tri1 1 , devclrn $end
$var tri1 1 - devpor $end
$var tri1 1 . devoe $end
$var wire 1 / ~QUARTUS_CREATED_GND~I_combout $end
$var wire 1 0 clock~input_o $end
$var wire 1 1 clock~inputCLKENA0_outclk $end
$var wire 1 2 enter~input_o $end
$var wire 1 3 equals~input_o $end
$var wire 1 4 change~input_o $end
$var wire 1 5 Selector4~0_combout $end
$var wire 1 6 state_changer.E_225~combout $end
$var wire 1 7 resetn~input_o $end
$var wire 1 8 state.E~q $end
$var wire 1 9 Selector0~0_combout $end
$var wire 1 : state_changer.A_325~combout $end
$var wire 1 ; state.A~0_combout $end
$var wire 1 < state.A~q $end
$var wire 1 = Selector2~0_combout $end
$var wire 1 > state_changer.C_275~combout $end
$var wire 1 ? state.C~q $end
$var wire 1 @ Selector5~0_combout $end
$var wire 1 A Selector1~0_combout $end
$var wire 1 B state_changer.B_300~combout $end
$var wire 1 C state.B~q $end
$var wire 1 D Selector3~0_combout $end
$var wire 1 E state_changer.D_250~combout $end
$var wire 1 F state.D~q $end
$upscope $end
$upscope $end
$enddefinitions $end
#0
$dumpvars
0!
0"
1#
0$
1%
0&
0'
0(
0)
1*
x+
1,
1-
1.
0/
00
01
12
03
04
05
06
17
08
09
0:
1;
0<
1=
1>
0?
1@
0A
0B
0C
0D
0E
0F
$end
#50000
1"
10
11
1?
1<
0=
1D
1E
0>
#100000
0"
00
01
#150000
1"
10
11
0?
1F
1&
#160000
0#
02
#180000
0%
07
0<
0F
0&
19
0D
1:
0E
0;
#200000
0"
00
01
#230000
1!
1$
1%
14
13
17
1A
09
0:
1B
1;
#250000
1"
10
11
1<
1C
1'
0A
19
1:
0B
0;
#280000
0!
04
1A
09
0:
1B
1;
#290000
0$
03
#300000
0"
00
01
#330000
1#
12
0A
19
1:
0B
0;
#350000
1"
10
11
0<
0C
0'
1=
09
0:
1>
1;
#370000
0#
02
0=
19
1:
0>
0;
#400000
0"
00
01
#420000
1$
13
#440000
1#
12
09
15
0:
16
1;
#450000
1"
10
11
1<
18
1(
19
05
1:
06
0;
#490000
0#
02
09
15
0:
16
1;
#500000
0"
00
01
#520000
1#
12
19
05
1:
06
0;
#550000
1"
10
11
0<
08
0(
09
15
0:
16
1;
#570000
0#
02
19
05
1:
06
0;
#580000
0$
03
#600000
0"
00
01
#630000
1#
12
1=
09
0:
1>
1;
#650000
1"
10
11
1?
1<
0=
1D
1E
0>
#680000
0#
02
0D
1=
1>
0E
#700000
0"
00
01
#750000
1"
10
11
