Lab 4/comparator/simulation/qsim/comparator.msim.vcd
$comment
	File created using the following command:
		vcd file comparator.msim.vcd -direction
$end
$date
	Thu Nov 16 22:20:01 2023
$end
$version
	ModelSim Version 2020.1
$end
$timescale
	1ps
$end

$scope module comparator_vlg_vec_tst $end
$var reg 4 ! combo [3:0] $end
$var reg 4 " x [3:0] $end
$var wire 1 # equals $end

$scope module i1 $end
$var wire 1 $ gnd $end
$var wire 1 % vcc $end
$var wire 1 & unknown $end
$var tri1 1 ' devclrn $end
$var tri1 1 ( devpor $end
$var tri1 1 ) devoe $end
$var wire 1 * ~QUARTUS_CREATED_GND~I_combout $end
$var wire 1 + x[2]~input_o $end
$var wire 1 , combo[1]~input_o $end
$var wire 1 - x[1]~input_o $end
$var wire 1 . combo[0]~input_o $end
$var wire 1 / x[0]~input_o $end
$var wire 1 0 Equal0~0_combout $end
$var wire 1 1 x[3]~input_o $end
$var wire 1 2 combo[3]~input_o $end
$var wire 1 3 combo[2]~input_o $end
$var wire 1 4 Equal0~1_combout $end
$upscope $end
$upscope $end
$enddefinitions $end
#0
$dumpvars
b0 !
b0 "
1#
0$
1%
x&
1'
1(
1)
0*
0+
0,
0-
0.
0/
10
01
02
03
14
$end
#30000
b1000 "
b1100 "
b10 !
b11 !
1.
1,
1+
11
00
04
0#
#80000
b100 "
b0 "
b1 !
b0 !
0.
0,
0+
01
10
14
1#
#120000
b10 "
b11 "
b1000 !
b1011 "
b1010 !
b1011 !
1.
1,
12
1/
1-
11
#160000
b1001 !
b1000 !
0.
0,
00
04
0#
#180000
b11 "
01
#190000
b1 "
b0 "
b0 !
02
0/
0-
10
14
1#
#300000
b100 "
b110 "
1-
1+
00
04
0#
#340000
b100 !
b110 !
1,
13
10
14
1#
#360000
b10 "
b0 "
0-
0+
00
04
0#
#400000
b10 !
b0 !
0,
03
10
14
1#
#440000
b1000 "
b1001 "
b1000 !
b1010 !
1,
12
1/
11
00
04
0#
#500000
b1 "
b0 "
b10 !
b0 !
0,
02
0/
01
10
14
1#
#540000
b1 !
b100 "
b110 "
b101 !
b1110 "
b1111 "
b1101 !
b1111 !
1/
1-
1+
11
1.
1,
13
12
#610000
b1110 !
b1011 "
b1001 "
b1010 !
b1 "
b0 "
b10 !
b0 !
0/
0-
0+
01
0.
0,
03
02
#640000
b100 "
b1100 "
1+
11
04
0#
#690000
b1000 "
b0 "
0+
01
14
1#
#720000
b1000 "
11
04
0#
#740000
b1000 !
12
14
1#
#760000
b0 "
01
04
0#
#790000
b0 !
02
14
1#
