Lab 4/combochanger/simulation/qsim/combochanger.msim.vcd
$comment
	File created using the following command:
		vcd file combochanger.msim.vcd -direction
$end
$date
	Thu Nov 16 22:56:46 2023
$end
$version
	ModelSim Version 2020.1
$end
$timescale
	1ps
$end

$scope module combochanger_vlg_vec_tst $end
$var reg 1 ! change $end
$var reg 1 " clock $end
$var reg 1 # enter $end
$var reg 1 $ new $end
$var reg 1 % resetn $end
$var reg 4 & x [3:0] $end
$var wire 1 ' combo [3] $end
$var wire 1 ( combo [2] $end
$var wire 1 ) combo [1] $end
$var wire 1 * combo [0] $end

$scope module i1 $end
$var wire 1 + gnd $end
$var wire 1 , vcc $end
$var wire 1 - unknown $end
$var tri1 1 . devclrn $end
$var tri1 1 / devpor $end
$var tri1 1 0 devoe $end
$var wire 1 1 ~QUARTUS_CREATED_GND~I_combout $end
$var wire 1 2 clock~input_o $end
$var wire 1 3 clock~inputCLKENA0_outclk $end
$var wire 1 4 x[0]~input_o $end
$var wire 1 5 combo[0]~reg0feeder_combout $end
$var wire 1 6 resetn~input_o $end
$var wire 1 7 enter~input_o $end
$var wire 1 8 new~input_o $end
$var wire 1 9 change~input_o $end
$var wire 1 : always0~0_combout $end
$var wire 1 ; combo[0]~reg0_q $end
$var wire 1 < x[1]~input_o $end
$var wire 1 = combo[1]~0_combout $end
$var wire 1 > combo[1]~reg0_q $end
$var wire 1 ? x[2]~input_o $end
$var wire 1 @ combo[2]~1_combout $end
$var wire 1 A combo[2]~reg0_q $end
$var wire 1 B x[3]~input_o $end
$var wire 1 C combo[3]~reg0feeder_combout $end
$var wire 1 D combo[3]~reg0_q $end
$upscope $end
$upscope $end
$enddefinitions $end
#0
$dumpvars
0!
0"
0#
0$
1%
b1101 &
0*
1)
1(
0'
0+
1,
x-
1.
1/
10
01
02
03
14
15
16
07
08
09
0:
0;
0<
1=
0>
1?
0@
0A
1B
1C
0D
$end
#10000
1#
17
#50000
1"
0%
12
06
13
#100000
0"
1%
02
16
03
#110000
0#
07
#120000
1$
18
#130000
1!
19
1:
#150000
1"
12
13
1>
1D
1;
1*
1'
0)
#170000
b101 &
b1 &
b0 &
04
0?
0B
0C
1@
05
#200000
0!
0"
09
02
03
0:
#210000
b100 &
1?
0@
#230000
1#
0$
17
08
#250000
1"
12
13
#300000
0"
02
03
#320000
1$
18
1:
#330000
b0 &
0?
1@
#340000
b10 &
1<
0=
#350000
1"
12
13
1A
0>
0D
0;
0*
0'
1)
0(
#370000
0#
07
0:
#380000
0$
08
#400000
0"
02
03
#410000
0%
06
0A
1(
#420000
b0 &
0<
1=
#450000
1"
12
13
#460000
1%
16
#500000
0"
02
03
#520000
b1000 &
1!
1$
1B
19
18
1:
1C
#540000
b1001 &
14
15
#550000
1"
12
13
1A
1>
1D
1;
1*
1'
0)
0(
#580000
b1 &
b0 &
04
0B
0C
05
#590000
0!
09
0:
#600000
0"
02
03
#620000
0$
08
#650000
1"
12
13
#660000
0%
06
0>
0A
0;
0D
0'
0*
1(
1)
#700000
0"
02
03
#730000
1%
16
#750000
1"
12
13
