Lab3/5c/simulation/qsim/alu3.msim.vcd
$comment
	File created using the following command:
		vcd file alu3.msim.vcd -direction
$end
$date
	Fri Nov 03 13:41:40 2023
$end
$version
	ModelSim Version 2020.1
$end
$timescale
	1ps
$end

$scope module alu3_vlg_vec_tst $end
$var reg 1 ! clock $end
$var reg 1 " reset $end
$var reg 3 # x [2:0] $end
$var wire 1 $ carryout $end
$var wire 1 % leds [0] $end
$var wire 1 & leds [1] $end
$var wire 1 ' leds [2] $end
$var wire 1 ( leds [3] $end
$var wire 1 ) leds [4] $end
$var wire 1 * leds [5] $end
$var wire 1 + leds [6] $end

$scope module i1 $end
$var wire 1 , gnd $end
$var wire 1 - vcc $end
$var wire 1 . unknown $end
$var tri1 1 / devclrn $end
$var tri1 1 0 devpor $end
$var tri1 1 1 devoe $end
$var wire 1 2 ~QUARTUS_CREATED_GND~I_combout $end
$var wire 1 3 clock~input_o $end
$var wire 1 4 clock~inputCLKENA0_outclk $end
$var wire 1 5 x[1]~input_o $end
$var wire 1 6 x[0]~input_o $end
$var wire 1 7 reset~input_o $end
$var wire 1 8 x[2]~input_o $end
$var wire 1 9 q1[2]~feeder_combout $end
$var wire 1 : q2[2]~feeder_combout $end
$var wire 1 ; c~0_combout $end
$var wire 1 < WideOr6~0_combout $end
$var wire 1 = WideOr5~0_combout $end
$var wire 1 > WideOr4~0_combout $end
$var wire 1 ? WideOr3~0_combout $end
$var wire 1 @ WideOr2~0_combout $end
$var wire 1 A WideOr1~0_combout $end
$var wire 1 B WideOr0~0_combout $end
$var wire 1 C q2 [2] $end
$var wire 1 D q2 [1] $end
$var wire 1 E q2 [0] $end
$var wire 1 F q1 [2] $end
$var wire 1 G q1 [1] $end
$var wire 1 H q1 [0] $end
$var wire 1 I s [2] $end
$var wire 1 J s [1] $end
$var wire 1 K s [0] $end
$upscope $end
$upscope $end
$enddefinitions $end
#0
$dumpvars
1!
1"
b0 #
0$
1+
0*
0)
0(
0'
0&
0%
0,
1-
x.
1/
10
11
02
13
14
05
06
17
08
09
0:
0;
0<
0=
0>
0?
0@
0A
0B
0E
0D
0C
0H
0G
0F
0K
0J
0I
$end
#50000
0!
03
04
#90000
b100 #
b101 #
16
18
19
#100000
1!
13
14
1F
1H
1I
1K
1:
1<
1A
1>
1)
1&
0+
#110000
b1 #
b0 #
06
08
09
#150000
0!
03
04
#190000
b10 #
b110 #
15
18
19
#200000
1!
13
14
1C
1E
0H
1G
1J
0I
1;
1$
1B
0>
0)
1%
#210000
b100 #
b0 #
05
08
09
#250000
0!
03
04
#290000
b1 #
b11 #
16
15
#300000
1!
13
14
1D
0F
0E
1H
0J
0:
0B
0A
1>
1)
0&
0%
#310000
b10 #
b0 #
06
05
#350000
0!
03
04
#390000
b10 #
15
#400000
1!
13
14
0C
1E
0H
1I
0;
0$
1A
1&
#410000
b0 #
05
#440000
0"
07
0E
0D
1J
0I
0K
0A
1@
0>
1=
1*
0)
1'
0&
#450000
0!
03
04
#490000
b100 #
1"
18
17
19
#500000
1!
13
14
1D
1F
0G
1I
1:
1A
0@
0=
0*
0'
1&
#510000
b0 #
08
09
#550000
0!
03
04
#590000
b1 #
b11 #
b111 #
16
15
18
19
#600000
1!
13
14
0D
1C
1H
1G
0I
1K
1;
1$
1B
1%
#610000
b110 #
b100 #
b0 #
06
05
08
09
#640000
0"
07
0C
1I
0;
0$
0<
0B
0A
1?
1>
1=
1*
1)
1(
0&
0%
1+
#650000
0!
03
04
#690000
b1 #
b11 #
16
15
#700000
1!
13
14
0F
0I
0:
1<
0?
0(
0+
#710000
1"
b10 #
b0 #
17
06
05
#750000
0!
03
04
